CREATE TABLE addressconsent (   
	sf_batchid STRING,  
	sf_legalentity STRING,                                                              
	rowkey STRING,                                                                                                    
	addressconsentsk BIGINT,                                                                                          
	marketsk BIGINT,                                                                                                  
	brandsk BIGINT,                                                                                                   
	consenttypesk BIGINT,                                                                                             
	addresssk BIGINT,                                                                                                 
	customermk BIGINT,                                                                                                
	isoptin INT,                                                                                                      
	channelsk BIGINT,                                                                                                 
	consentdate TIMESTAMP,                                                                                            
	consentdatekey INT,                                                                                               
	sourcesystemsk BIGINT,                                                                                            
	sourcelookupvalue STRING,                                                                                         
	ingestionlineage INT,                                                                                             
	active INT,                                                                                                       
	datefrom TIMESTAMP,                                                                                               
	dateto TIMESTAMP,                                                                                                 
	createddate TIMESTAMP,                                                                                            
	createdby STRING,                                                                                                 
	modifieddate TIMESTAMP,                                                                                           
	modifiedby STRING,                                                                                                
	batchid INT,
	ingestion_lineage STRING
);
                                                                                                                 
