CREATE TABLE agent (   
	sf_batchid STRING,  
	sf_legalentity STRING,                                              
	rowkey STRING,                                                                           
	agentsk BIGINT,                                                                          
	agentmk BIGINT,                                                                          
	uniqueagentmk BIGINT,                                                                    
	agentid STRING,                                                                          
	agentname STRING,                                                                        
	brandsk BIGINT,                                                                          
	sourcelookupvalue STRING,                                                                
	active INT,                                                                              
	datefrom TIMESTAMP,                                                                      
	dateto TIMESTAMP,                                                                        
	createdby STRING,                                                                        
	createddate TIMESTAMP,                                                                   
	modifiedby STRING,                                                                       
	modifieddate TIMESTAMP,                                                                  
	batchid INT,                                                                             
	channelsk BIGINT,                                                                        
	companyname STRING,                                                                      
	companylongname STRING,                                                                  
	crmagenttype STRING,                                                                     
	agenttype STRING,                                                                        
	salesstartdate STRING,                                                                   
	salesenddate STRING,                                                                     
	salesmanagementcode STRING,                                                              
	salesmanagementname STRING,                                                              
	fax STRING,                                                                              
	telephone STRING,                                                                        
	addresssk BIGINT,                                                                        
	shopno STRING,                                                                           
	salesagentno STRING,                                                                     
	enteredby STRING,                                                                        
	entereddate TIMESTAMP
);                                                                                          
