CREATE TABLE customer (   
	sf_batchid STRING,  
	sf_legalentity STRING,                                              
	rowkey STRING,                                                                              
	customersk BIGINT,                                                                          
	customermk BIGINT,                                                                          
	sourcesystemsk BIGINT,                                                                      
	ownersk BIGINT,                                                                             
	agentmk BIGINT,                                                                             
	languagesk BIGINT,                                                                          
	customerid STRING,                                                                          
	uniquecustomermk BIGINT,                                                                    
	title STRING,                                                                               
	title2 STRING,                                                                              
	firstname STRING,                                                                           
	firstnameinitial STRING,                                                                    
	middlename STRING,                                                                          
	middlenameinitial STRING,                                                                   
	lastname STRING,                                                                            
	fullname STRING,                                                                            
	status STRING,                                                                              
	nationality STRING,                                                                         
	maritalstatus STRING,                                                                       
	dateofbirth STRING,                                                                      
	dateofbirthkey INT,                                                                         
	gender STRING,                                                                              
	goneawayflag STRING,                                                                        
	sourcelookupvalue STRING,                                                                   
	ingestionlineage BIGINT,                                                                    
	fromdate TIMESTAMP,                                                                         
	todate TIMESTAMP,                                                                           
	salutation STRING,                                                                          
	initials STRING,                                                                            
	maidenname STRING,                                                                          
	emailid STRING,                                                                             
	customercategory STRING,                                                                    
	crookflag STRING,                                                                           
	datasecuritylockflag STRING,                                                                
	bluecardflag STRING,                                                                        
	createddate TIMESTAMP,                                                                      
	createdby STRING,                                                                           
	modifieddate TIMESTAMP,                                                                     
	modifiedby STRING,                                                                          
	batchid INT,
	deceasedflag STRING,
	deceaseddate TIMESTAMP,
	lastvalidated TIMESTAMP,
	ruledefinition STRING,
	active INT
);                                                                                             
