CREATE TABLE emailcampaignclickevent (  
	sf_batchid STRING,
	sf_legalentity STRING,                                                      
	marketsk BIGINT,                                                                                                   
	brandsk BIGINT,                                                                                                    
	customermk BIGINT,                                                                                                 
	campaignsk BIGINT,                                                                                                 
	mailingsk BIGINT,                                                                                                  
	marketcode STRING,                                                                                                 
	brandcode STRING,                                                                                                  
	customerlocalid STRING,                                                                                            
	campaignid STRING,                                                                                                 
	campaigncode STRING,                                                                                               
	mailingid STRING,                                                                                                  
	eventdate STRING,                                                                                                  
	emailaddress STRING,                                                                                               
	subjectline STRING,                                                                                                
	url STRING,                                                                                                        
	departuredate TIMESTAMP,                                                                                           
	mailingsentdate TIMESTAMP,                                                                                         
	recepientid STRING,                                                                                                
	modifiedby STRING,                                                                                                 
	modifieddate TIMESTAMP,                                                                                            
	batchid INT,                                                                                                       
	cellname STRING,                                                                                                   
	hotelmk BIGINT,                                                                                                    
	hotelcode STRING,                                                                                                  
	destinationmk BIGINT,                                                                                              
	destinationcode STRING,                                                                                            
	productmk BIGINT,                                                                                                  
	productcode STRING                                                                                                 
 );