CREATE TABLE transportsegment (   
	sf_batchid STRING,  
	sf_legalentity STRING,                                             
	rowkey STRING,                                                                                     
	transportsegmentsk BIGINT,                                                                         
	bookingmk BIGINT,                                                                                  
	journeymk BIGINT,                                                                                  
	bookingversionnumber STRING,                                                                       
	transporttype STRING,                                                                              
	segmentid STRING,                                                                                  
	status STRING,                                                                                     
	segmenttype STRING,                                                                                
	segmentorder STRING,                                                                               
	departureairportsk BIGINT,                                                                         
	arrivalairportsk BIGINT,                                                                           
	carriernumber STRING,                                                                              
	departuredate TIMESTAMP,                                                                           
	departuredatekey INT,                                                                              
	arrivaldate TIMESTAMP,                                                                             
	arrivaldatekey INT,                                                                                
	carrierclasssk BIGINT,                                                                             
	haultypesk BIGINT,                                                                                 
	lastsegmentflag INT,                                                                               
	sourcelookupvalue STRING,                                                                          
	fromdate TIMESTAMP,                                                                                
	todate TIMESTAMP,                                                                                  
	createddate TIMESTAMP,                                                                             
	createdby STRING,                                                                                  
	modifieddate TIMESTAMP,                                                                            
	modifiedby STRING,                                                                                 
	batchid INT,                                                                                       
	itinerarytypecode STRING,                                                                          
	departurecruiseportsk BIGINT,                                                                      
	arrivalcruiseportsk BIGINT,                                                                        
	typeofflight STRING,                                                                               
	mainservice BOOLEAN,                                                                               
	revenue DOUBLE,                                                                                    
	seatsavailable INT,                                                                                
	carriercode STRING,                                                                                
	carriername STRING,
	active INT,
	departureairportcode STRING,
	departureairportname STRING, 
	arrivalairportcode   STRING,
	arrivalairportname STRING,
	flightnumber STRING,
	flightclass STRING
);                                                                                                    
