{
  "$schema": "http://json-schema.org/draft-07/schema#",
  "definitions": {
    "eventPayload": {
      "type": "object",
      "description": "The event payload object",
      "properties": {
        "gmpslgeographicaladdresscreated": {
          "type": "object",
          "properties": {
            "sf_batchid": {
              "type": "string"
            },
            "rowkey": {
              "type": "string"
            },
            "geoaddresssk": {
              "type": "string"
            },
            "addressline1": {
              "type": "string",
              "pd": true
            },
            "addressline2": {
              "type": "string",
              "pd": true
            },
            "addressline3": {
              "type": "string",
              "pd": true
            },
            "addressline4": {
              "type": "string",
              "pd": true
            },
            "postcode": {
              "type": "string",
              "pd": true
            },
            "countrysk": {
              "type": "string"
            },
            "createddate": {
              "type": "string"
            },
            "createdby": {
              "type": "string"
            },
            "modifieddate": {
              "type": "string"
            },
            "modifiedby": {
              "type": "string"
            },
            "batchid": {
              "type": "string"
            }
          },
          "required": [
            "geoaddresssk"
          ]
        }
      },
      "required": [
        "gmpslgeographicaladdresscreated"
      ]
    }
  },
  "type": "object",
  "properties": {
    "metadata": {
      "allOf": [
        {
          "$ref": "eventmetadata.json#/definitions/eventMetadata"
        },
        {
          "properties": {
            "eventName": {
              "enum": [
                "gmpslgeographicaladdresscreated"
              ]
            }
          },
          "required": [
            "eventName"
          ]
        }
      ]
    },
    "payload": {
      "$ref": "#/definitions/eventPayload"
    }
  },
  "required": [
    "metadata",
    "payload"
  ],
  "additionalProperties": false
}