{
    "name": "gmpudmcustomercontactcreated",
    "sourceData": "",
    "mappingFields": [
	{"destinationField": "metadata.legalEntity","sourceField":"sf_legalentity","default": "TUI"},
{"destinationField": "payload.gmpudmcustomercontactcreated.sf_batchid","sourceField":"sf_batchid","default": ""},
{"destinationField": "payload.gmpudmcustomercontactcreated.marketcode","sourceField":"marketcode","default": ""},
{"destinationField": "payload.gmpudmcustomercontactcreated.CustomerMk","sourceField":"CustomerMk","default": ""},
{"destinationField": "payload.gmpudmcustomercontactcreated.MarketSk","sourceField":"MarketSk","default": ""},
{"destinationField": "payload.gmpudmcustomercontactcreated.BrandSk","sourceField":"BrandSk","default": ""},
{"destinationField": "payload.gmpudmcustomercontactcreated.AddressSk","sourceField":"AddressSk","default": ""},
{"destinationField": "payload.gmpudmcustomercontactcreated.AgentMk","sourceField":"AgentMk","default": ""},
{"destinationField": "payload.gmpudmcustomercontactcreated.CustomerLocalId","sourceField":"CustomerLocalId","default": ""},
{"destinationField": "payload.gmpudmcustomercontactcreated.BrandCode","sourceField":"BrandCode","default": ""},
{"destinationField": "payload.gmpudmcustomercontactcreated.LanguageCode","sourceField":"LanguageCode","default": ""},
{"destinationField": "payload.gmpudmcustomercontactcreated.AgentCode","sourceField":"AgentCode","default": ""},
{"destinationField": "payload.gmpudmcustomercontactcreated.LanguageName","sourceField":"LanguageName","default": ""},
{"destinationField": "payload.gmpudmcustomercontactcreated.AddressOptinFlag","sourceField":"AddressOptinFlag","default": ""},
{"destinationField": "payload.gmpudmcustomercontactcreated.AddressSourceDate","sourceField":"AddressSourceDate","default": ""},
{"destinationField": "payload.gmpudmcustomercontactcreated.AddressOptinDate","sourceField":"AddressOptinDate","default": ""},
{"destinationField": "payload.gmpudmcustomercontactcreated.EmailAddress","sourceField":"EmailAddress","default": ""},
{"destinationField": "payload.gmpudmcustomercontactcreated.EmailOptinFlag","sourceField":"EmailOptinFlag","default": ""},
{"destinationField": "payload.gmpudmcustomercontactcreated.EmailSourceDate","sourceField":"EmailSourceDate","default": ""},
{"destinationField": "payload.gmpudmcustomercontactcreated.EmailOptinDate","sourceField":"EmailOptinDate","default": ""},
{"destinationField": "payload.gmpudmcustomercontactcreated.LandLinePhoneNumber","sourceField":"LandLinePhoneNumber","default": ""},
{"destinationField": "payload.gmpudmcustomercontactcreated.PhoneOptinFlag","sourceField":"PhoneOptinFlag","default": ""},
{"destinationField": "payload.gmpudmcustomercontactcreated.LandlinePhoneSourceDate","sourceField":"LandlinePhoneSourceDate","default": ""},
{"destinationField": "payload.gmpudmcustomercontactcreated.PhoneOptinDate","sourceField":"PhoneOptinDate","default": ""},
{"destinationField": "payload.gmpudmcustomercontactcreated.MobilePhoneNumber","sourceField":"MobilePhoneNumber","default": ""},
{"destinationField": "payload.gmpudmcustomercontactcreated.SMSOptinFlag","sourceField":"SMSOptinFlag","default": ""},
{"destinationField": "payload.gmpudmcustomercontactcreated.MobilePhoneSourceDate","sourceField":"MobilePhoneSourceDate","default": ""},
{"destinationField": "payload.gmpudmcustomercontactcreated.SMSoptinDate","sourceField":"SMSoptinDate","default": ""},
{"destinationField": "payload.gmpudmcustomercontactcreated.PreDepartureOptinFlag","sourceField":"PreDepartureOptinFlag","default": ""},
{"destinationField": "payload.gmpudmcustomercontactcreated.ReviewCount","sourceField":"ReviewCount","default": ""},
{"destinationField": "payload.gmpudmcustomercontactcreated.PackageBookingCount","sourceField":"PackageBookingCount","default": ""},
{"destinationField": "payload.gmpudmcustomercontactcreated.PaymentCount","sourceField":"PaymentCount","default": ""},
{"destinationField": "payload.gmpudmcustomercontactcreated.MostFrequentHolidayDuration","sourceField":"MostFrequentHolidayDuration","default": ""},
{"destinationField": "payload.gmpudmcustomercontactcreated.NPSFromLastBooking","sourceField":"NPSFromLastBooking","default": ""},
{"destinationField": "payload.gmpudmcustomercontactcreated.GFKRoperLifeStyleCode","sourceField":"GFKRoperLifeStyleCode","default": ""},
{"destinationField": "payload.gmpudmcustomercontactcreated.GFKRoperLifestyleName","sourceField":"GFKRoperLifestyleName","default": ""},
{"destinationField": "payload.gmpudmcustomercontactcreated.HouseholdCompositionCode","sourceField":"HouseholdCompositionCode","default": ""},
{"destinationField": "payload.gmpudmcustomercontactcreated.HouseholdCompositionName","sourceField":"HouseholdCompositionName","default": ""},
{"destinationField": "payload.gmpudmcustomercontactcreated.PreDepartureOptinDate","sourceField":"PreDepartureOptinDate","default": ""},
{"destinationField": "payload.gmpudmcustomercontactcreated.FirstEngagementDate","sourceField":"FirstEngagementDate","default": ""},
{"destinationField": "payload.gmpudmcustomercontactcreated.LastBrochureRequestDate","sourceField":"LastBrochureRequestDate","default": ""},
{"destinationField": "payload.gmpudmcustomercontactcreated.LastComplaintIssuedDate","sourceField":"LastComplaintIssuedDate","default": ""},
{"destinationField": "payload.gmpudmcustomercontactcreated.LastEngagementDate","sourceField":"LastEngagementDate","default": ""},
{"destinationField": "payload.gmpudmcustomercontactcreated.LastReviewedDate","sourceField":"LastReviewedDate","default": ""},
{"destinationField": "payload.gmpudmcustomercontactcreated.BalanceOutstandingIndicatorFlag","sourceField":"BalanceOutstandingIndicatorFlag","default": ""},
{"destinationField": "payload.gmpudmcustomercontactcreated.BlackListedFlag","sourceField":"BlackListedFlag","default": ""},
{"destinationField": "payload.gmpudmcustomercontactcreated.DeceasedFlag","sourceField":"DeceasedFlag","default": ""},
{"destinationField": "payload.gmpudmcustomercontactcreated.GoneAwayFlag","sourceField":"GoneAwayFlag","default": ""},
{"destinationField": "payload.gmpudmcustomercontactcreated.HandleWithCareFlag","sourceField":"HandleWithCareFlag","default": ""},
{"destinationField": "payload.gmpudmcustomercontactcreated.HardBouncedFlag","sourceField":"HardBouncedFlag","default": ""},
{"destinationField": "payload.gmpudmcustomercontactcreated.HasCompletedSurveyFlag","sourceField":"HasCompletedSurveyFlag","default": ""},
{"destinationField": "payload.gmpudmcustomercontactcreated.HolidaysCancelled","sourceField":"HolidaysCancelled","default": ""},
{"destinationField": "payload.gmpudmcustomercontactcreated.LiveBookingFlag","sourceField":"LiveBookingFlag","default": ""},
{"destinationField": "payload.gmpudmcustomercontactcreated.OnHolidayFlag","sourceField":"OnHolidayFlag","default": ""},
{"destinationField": "payload.gmpudmcustomercontactcreated.AverageSpend","sourceField":"AverageSpend","default": ""},
{"destinationField": "payload.gmpudmcustomercontactcreated.AverageLeadTime","sourceField":"AverageLeadTime","default": ""},
{"destinationField": "payload.gmpudmcustomercontactcreated.BookingCount","sourceField":"BookingCount","default": ""},
{"destinationField": "payload.gmpudmcustomercontactcreated.BookingsInLast5YearsCount","sourceField":"BookingsInLast5YearsCount","default": ""},
{"destinationField": "payload.gmpudmcustomercontactcreated.ComplaintCount","sourceField":"ComplaintCount","default": ""},
{"destinationField": "payload.gmpudmcustomercontactcreated.CustomerValueScore","sourceField":"CustomerValueScore","default": ""},
{"destinationField": "payload.gmpudmcustomercontactcreated.SummerBookerFlag","sourceField":"SummerBookerFlag","default": ""},
{"destinationField": "payload.gmpudmcustomercontactcreated.WinterBookerFlag","sourceField":"WinterBookerFlag","default": ""},
{"destinationField": "payload.gmpudmcustomercontactcreated.DepartureCount","sourceField":"DepartureCount","default": ""},
{"destinationField": "payload.gmpudmcustomercontactcreated.EnquiryCount","sourceField":"EnquiryCount","default": ""},
{"destinationField": "payload.gmpudmcustomercontactcreated.CountTotalBookingsSummerSeason","sourceField":"CountTotalBookingsSummerSeason","default": ""},
{"destinationField": "payload.gmpudmcustomercontactcreated.CountTotalBookingsWinterSeason","sourceField":"CountTotalBookingsWinterSeason","default": ""},
{"destinationField": "payload.gmpudmcustomercontactcreated.Age","sourceField":"Age","default": ""},
{"destinationField": "payload.gmpudmcustomercontactcreated.SchoolHolidayBooker","sourceField":"SchoolHolidayBooker","default": ""},
{"destinationField": "payload.gmpudmcustomercontactcreated.SchoolHolidayDependant","sourceField":"SchoolHolidayDependant","default": ""},
{"destinationField": "payload.gmpudmcustomercontactcreated.Gender","sourceField":"Gender","default": ""},
{"destinationField": "payload.gmpudmcustomercontactcreated.ContinuousCancellationInsuranceFlag","sourceField":"ContinuousCancellationInsuranceFlag","default": ""},
{"destinationField": "payload.gmpudmcustomercontactcreated.ContinuousTravelInsuranceFlag","sourceField":"ContinuousTravelInsuranceFlag","default": ""},
{"destinationField": "payload.gmpudmcustomercontactcreated.TUIEmployeeFlag","sourceField":"TUIEmployeeFlag","default": ""},
{"destinationField": "payload.gmpudmcustomercontactcreated.IsShopContactFlag","sourceField":"IsShopContactFlag","default": ""},
{"destinationField": "payload.gmpudmcustomercontactcreated.IsCustomerShopOwnedFlag","sourceField":"IsCustomerShopOwnedFlag","default": ""},
{"destinationField": "payload.gmpudmcustomercontactcreated.Custom1","sourceField":"Custom1","default": ""},
{"destinationField": "payload.gmpudmcustomercontactcreated.Custom2","sourceField":"Custom2","default": ""},
{"destinationField": "payload.gmpudmcustomercontactcreated.Custom3","sourceField":"Custom3","default": ""},
{"destinationField": "payload.gmpudmcustomercontactcreated.Custom4","sourceField":"Custom4","default": ""},
{"destinationField": "payload.gmpudmcustomercontactcreated.Custom5","sourceField":"Custom5","default": ""},
{"destinationField": "payload.gmpudmcustomercontactcreated.Custom6","sourceField":"Custom6","default": ""},
{"destinationField": "payload.gmpudmcustomercontactcreated.Custom7","sourceField":"Custom7","default": ""},
{"destinationField": "payload.gmpudmcustomercontactcreated.Custom8","sourceField":"Custom8","default": ""},
{"destinationField": "payload.gmpudmcustomercontactcreated.Custom9","sourceField":"Custom9","default": ""},
{"destinationField": "payload.gmpudmcustomercontactcreated.Custom10","sourceField":"Custom10","default": ""},
{"destinationField": "payload.gmpudmcustomercontactcreated.EmailListID","sourceField":"EmailListID","default": ""},
{"destinationField": "payload.gmpudmcustomercontactcreated.ModifiedBy","sourceField":"ModifiedBy","default": ""},
{"destinationField": "payload.gmpudmcustomercontactcreated.ModifiedDate","sourceField":"ModifiedDate","default": ""},
{"destinationField": "payload.gmpudmcustomercontactcreated.batchid","sourceField":"batchid","default": ""},
{"destinationField": "payload.gmpudmcustomercontactcreated.AddressOptinSource","sourceField":"AddressOptinSource","default": ""},
{"destinationField": "payload.gmpudmcustomercontactcreated.AddressSource","sourceField":"AddressSource","default": ""},
{"destinationField": "payload.gmpudmcustomercontactcreated.EmailOptinSource","sourceField":"EmailOptinSource","default": ""},
{"destinationField": "payload.gmpudmcustomercontactcreated.EmailSource","sourceField":"EmailSource","default": ""},
{"destinationField": "payload.gmpudmcustomercontactcreated.LandlinePhoneSource","sourceField":"LandlinePhoneSource","default": ""},
{"destinationField": "payload.gmpudmcustomercontactcreated.MobilePhoneSource","sourceField":"MobilePhoneSource","default": ""},
{"destinationField": "payload.gmpudmcustomercontactcreated.PhoneOptinSource","sourceField":"PhoneOptinSource","default": ""},
{"destinationField": "payload.gmpudmcustomercontactcreated.PreDepartureOptinSource","sourceField":"PreDepartureOptinSource","default": ""},
{"destinationField": "payload.gmpudmcustomercontactcreated.SMSOptinSource","sourceField":"SMSOptinSource","default": ""},
{"destinationField": "payload.gmpudmcustomercontactcreated.IsEmailAddressValid","sourceField":"IsEmailAddressValid","default": ""},
{"destinationField": "payload.gmpudmcustomercontactcreated.CustomerRank","sourceField":"CustomerRank","default": ""},
{"destinationField": "payload.gmpudmcustomercontactcreated.IsCustomerFirstNameValid","sourceField":"IsCustomerFirstNameValid","default": ""},
{"destinationField": "payload.gmpudmcustomercontactcreated.IsCustomerSurnameValid","sourceField":"IsCustomerSurnameValid","default": ""},
{"destinationField": "payload.gmpudmcustomercontactcreated.IsLandlinePhoneNumberValid","sourceField":"IsLandlinePhoneNumberValid","default": ""},
{"destinationField": "payload.gmpudmcustomercontactcreated.IsMobilePhoneNumberValid","sourceField":"IsMobilePhoneNumberValid","default": ""},
{"destinationField": "payload.gmpudmcustomercontactcreated.ComplaintIndicatorFlag","sourceField":"ComplaintIndicatorFlag","default": ""},
{"destinationField": "payload.gmpudmcustomercontactcreated.FallowGroupFlag","sourceField":"FallowGroupFlag","default": ""}
    ]
}